No,Bulan,Kecepatan Angin Rata-rata (knot),Kecepatan Angin Terbesar (knot)
1,Januari,4,9
2,Februari,4,12
3,Maret,3,10
4,April,3,30
5,Mei,3,9
6,Juni,3,8
7,Juli,3,9
8,Agustus,3,30
9,September,4,12
10,Oktober,4,16
11,November,3,13
12,Desember,4,12